Use NMF to discover
…
Then we can ask “what are the genes that provided the evidence for the separation of these two clusters?”

nmf_results$gene_info

## # A tibble: 14,865 × 8
##    gene_name      basis_1      basis_2 basis_1_weighted basis_2_weighted
##        <chr>        <dbl>        <dbl>            <dbl>            <dbl>
## 1        Mgp 1.090587e+00 3.190557e+01     1.607912e-01     6.831103e+00
## 2       Mal2 5.313835e+01 8.484844e+00     7.834476e+00     1.816637e+00
## 3        Bgn 2.220446e-16 2.673308e+01     3.273725e-17     5.723652e+00
## 4     Col1a2 3.252298e-01 2.662793e+01     4.795040e-02     5.701139e+00
## 5   Hist1h4d 3.588441e+01 2.220446e-16     5.290634e+00     4.754058e-17
## 6      Mfap4 2.220446e-16 2.224263e+01     3.273725e-17     4.762231e+00
## 7       Idh1 3.035478e+01 2.220446e-16     4.475371e+00     4.754058e-17
## 8       Nrep 4.179132e+01 4.961695e+01     6.161522e+00     1.062318e+01
## 9       Igf1 1.758126e+00 2.184246e+01     2.592101e-01     4.676552e+00
## 10      Fhl1 7.258388e+00 2.559203e+01     1.070144e+00     5.479349e+00
## # ... with 14,855 more rows, and 3 more variables: d_score <dbl>,
## #   which_max <fctr>, rank <int>
…
By the way, all the ggplot objects in the list have dataframe counter-parts for easy access of the underlying data. For example, coef_line_dat has the data for coef_line_plot:

nmf_results$coef_line_dat

## # A tibble: 142 × 3
##     coef    sample        value
##    <int>    <fctr>        <dbl>
## 1      1 SRX380553 1.641486e-01
## 2      2 SRX380553 1.689362e-09
## 3      1 SRX380621 1.531187e-01
## 4      2 SRX380621 1.233965e-05
## 5      1 SRX380549 1.426344e-01
## 6      2 SRX380549 2.216304e-08
## 7      1 SRX380545 1.424453e-01
## 8      2 SRX380545 1.076828e-08
## 9      1 SRX380561 1.361543e-01
## 10     2 SRX380561 4.021645e-09
## # ... with 132 more rows
…
